{
  "project_info": {
    "project_number": "487314412250",
    "firebase_url": "https://mobiledeliveryapp-c3500.firebaseio.com",
    "project_id": "mobiledeliveryapp-c3500",
    "storage_bucket": "mobiledeliveryapp-c3500.appspot.com"
  },
  "client": [
    {
      "client_info": {
        "mobilesdk_app_id": "1:487314412250:android:969fa25e4ea318c4fecbe3",
        "android_client_info": {
          "package_name": "ru.nikitabyrabsky.deliveryapp2"
        }
      },
      "oauth_client": [
        {
          "client_id": "487314412250-clbhatlcbumdo3mpuc0htuci57vsuiso.apps.googleusercontent.com",
          "client_type": 1,
          "android_info": {
            "package_name": "ru.nikitabyrabsky.deliveryapp2",
            "certificate_hash": "bfe204b03f4c9ed161c95c06346c88f33ccd9258"
          }
        },
        {
          "client_id": "487314412250-tl3a8ib0qa303o9khua8j71oenuehkka.apps.googleusercontent.com",
          "client_type": 3
        }
      ],
      "api_key": [
        {
          "current_key": "AIzaSyBrxrPVb4Lg5iRPa9fLVc4kHMe3qoHQa58"
        }
      ],
      "services": {
        "appinvite_service": {
          "other_platform_oauth_client": [
            {
              "client_id": "487314412250-tl3a8ib0qa303o9khua8j71oenuehkka.apps.googleusercontent.com",
              "client_type": 3
            }
          ]
        }
      }
    }
  ],
  "configuration_version": "1"
}